{
  "project_info": {
    "project_number": "509470541812",
    "firebase_url": "https://firstproject-a14ae-default-rtdb.firebaseio.com",
    "project_id": "firstproject-a14ae",
    "storage_bucket": "firstproject-a14ae.appspot.com"
  },
  "client": [
    {
      "client_info": {
        "mobilesdk_app_id": "1:509470541812:android:faa30a6079a8b90966dba1",
        "android_client_info": {
          "package_name": "com.app.admin"
        }
      },
      "oauth_client": [
        {
          "client_id": "509470541812-6jvhf6i66n5vrbk5q2ell6p0qd6u8j4b.apps.googleusercontent.com",
          "client_type": 3
        }
      ],
      "api_key": [
        {
          "current_key": "AIzaSyA5qobXhh8gVlSZz8qYOvxY1KdsCQ27xhY"
        }
      ],
      "services": {
        "appinvite_service": {
          "other_platform_oauth_client": [
            {
              "client_id": "509470541812-6jvhf6i66n5vrbk5q2ell6p0qd6u8j4b.apps.googleusercontent.com",
              "client_type": 3
            },
            {
              "client_id": "509470541812-b0ptjgt89tv1f9c31fp63uu3i0oiq39j.apps.googleusercontent.com",
              "client_type": 2,
              "ios_info": {
                "bundle_id": "com.myapp.sharedPref"
              }
            }
          ]
        }
      }
    },
    {
      "client_info": {
        "mobilesdk_app_id": "1:509470541812:android:705ad9cebb4a519166dba1",
        "android_client_info": {
          "package_name": "com.myapp.shared_pref"
        }
      },
      "oauth_client": [
        {
          "client_id": "509470541812-6jvhf6i66n5vrbk5q2ell6p0qd6u8j4b.apps.googleusercontent.com",
          "client_type": 3
        }
      ],
      "api_key": [
        {
          "current_key": "AIzaSyA5qobXhh8gVlSZz8qYOvxY1KdsCQ27xhY"
        }
      ],
      "services": {
        "appinvite_service": {
          "other_platform_oauth_client": [
            {
              "client_id": "509470541812-6jvhf6i66n5vrbk5q2ell6p0qd6u8j4b.apps.googleusercontent.com",
              "client_type": 3
            },
            {
              "client_id": "509470541812-b0ptjgt89tv1f9c31fp63uu3i0oiq39j.apps.googleusercontent.com",
              "client_type": 2,
              "ios_info": {
                "bundle_id": "com.myapp.sharedPref"
              }
            }
          ]
        }
      }
    }
  ],
  "configuration_version": "1"
}